%YAML 1.1
%TAG !u! tag:unity3d.com,2011:
--- !u!1045 &1
EditorBuildSettings:
  m_ObjectHideFlags: 0
  serializedVersion: 2
  m_Scenes:
  - enabled: 1
    path: Assets/Scenes/Title.unity
    guid: 43951771fe89aa046b4654009856096b
  - enabled: 1
    path: Assets/Scenes/Main.unity
    guid: c35db80e84ceac542a7bb677e23ae105
